📼 teaching computing with Git & GitHub
…
---

```r
repo_commits("tidyverse/dplyr") %>%
  count(login, sort = TRUE)
```

```
## # A tibble: 80 x 2
##    login                     n
##    <chr>                 <int>
##  1 romainfrancois          550
##  2 hadley                  237
##  3 lionel-                  44
##  4 DavisVaughan             41
##  5 krlmlr                   21
##  6 mine-cetinkaya-rundel    11
##  7 yutannihilation           6
##  8 batpigandme               5
##  9 earowang                  5
## 10 ianmcook                  3
## # … with 70 more rows
```
…
